INDEX VERSION 1.129+D:\---- EPAM BootCamp ----\git\.metadata\.plugins\org.eclipse.jdt.core
3172068124.index
2927524569.index
4166838873.index
2344980873.index
2831536327.index
3681335767.index
1847969816.index
2017505986.index
1583927216.index
1004716384.index
375126478.index
1904741536.index
188619105.index
2167310551.index
3256285438.index
2312443017.index
3878457715.index
3119455041.index
486699731.index
